…
Popular Start Stations for Casual riders
data_12_months_v2 %>%
    group_by(member_casual,start_station_name) %>%
    dplyr::summarise(number_of_ride = n()) %>%
    filter(start_station_name != "", "casual"== member_casual) %>%
    arrange(-number_of_ride) %>%
    head(n=30) %>%
    select(-member_casual)
## `summarise()` has grouped output by 'member_casual'. You can override using the `.groups` argument.
## Adding missing grouping variables: `member_casual`
## # A tibble: 30 x 3
## # Groups:   member_casual [1]
##    member_casual start_station_name         number_of_ride
##    <chr>         <chr>                               <int>
##  1 casual        Streeter Dr & Grand Ave             36355
##  2 casual        Lake Shore Dr & Monroe St           28024
##  3 casual        Millennium Park                     24550
##  4 casual        Theater on the Lake                 18423
##  5 casual        Michigan Ave & Oak St               18181
##  6 casual        Lake Shore Dr & North Blvd          16741
##  7 casual        Indiana Ave & Roosevelt Rd          15725
##  8 casual        Shedd Aquarium                      13758
##  9 casual        Michigan Ave & Lake St              13747
## 10 casual        Clark St & Elm St                   13181
## # … with 20 more rows
Popular Start Stations for Member riders
data_12_months_v2 %>%
    group_by(member_casual,start_station_name) %>%
    dplyr::summarise(number_of_ride = n()) %>%
    filter(start_station_name != "", "member" == member_casual) %>%
    arrange(-number_of_ride) %>%
    head(n=30) %>%
    select(-member_casual)
## `summarise()` has grouped output by 'member_casual'. You can override using the `.groups` argument.
## Adding missing grouping variables: `member_casual`
## # A tibble: 30 x 3
## # Groups:   member_casual [1]
##    member_casual start_station_name         number_of_ride
##    <chr>         <chr>                               <int>
##  1 member        Clark St & Elm St                   22445
##  2 member        Wells St & Concord Ln               17503
##  3 member        Theater on the Lake                 17291
##  4 member        Broadway & Barry Ave                17179
##  5 member        Dearborn St & Erie St               17060
##  6 member        Kingsbury St & Kinzie St            16933
##  7 member        St. Clair St & Erie St              16696
##  8 member        Wells St & Elm St                   16386
##  9 member        Wells St & Huron St                 15979
## 10 member        Lake Shore Dr & North Blvd          15444
## # … with 20 more rows
…
